{
  "General": {
    // The target Minecraft Version
    "Target Version": "1.19.4",
    // The build version of the data/resource pack; Can be null
    // Must be a valid SemVer2 version string
    "Build Version": null,
    // The path where the outputs will be placed
    // If the provided path does not exist, it will be created
    "Output Path": "./build",
    // Whether the data/resource pack should be built as a zipped file
    "Build as Zip": true,
    // A list of regex file patterns to exclude
    "Exclude": []
  },
  "Datapack": {
    // The name of the datapack
    "Name": "",
    // The description of the datapack; Can be null
    "Description": null,
    // The path to the data folder
    // If the provided folder does not exist, an error will be thrown
    "Source": "./data",
    // The path to the pack.png file; Can be null
    // If the provided file does not exist, it will be treated as null
    "Icon": null,
    // The path to the README file; Can be null
    // If the provided file does not exist, it will be treated as null
    "Readme": null,
    // The path to the license file; Can be null
    // If the provided file does not exist, it will be treated as null
    "License": null
  },
  "Resource Pack": {
    // The name of the resource pack
    "Name": "",
    // The description of the resource pack; Can be null
    "Description": null,
    // The path to the assets folder
    // If the provided folder does not exist, an error will be thrown
    "Source": "./assets",
    // The path to the pack.png file; Can be null
    // If the provided file does not exist, it will be treated as null
    "Icon": null,
    // The path to the README file; Can be null
    // If the provided file does not exist, it will be treated as null
    "Readme": null,
    // The path to the license file; Can be null
    // If the provided file does not exist, it will be treated as null
    "License": null
  }
}